%YAML 1.1
%TAG !u! tag:unity3d.com,2011:
--- !u!114 &11400000
MonoBehaviour:
  m_ObjectHideFlags: 0
  m_CorrespondingSourceObject: {fileID: 0}
  m_PrefabInstance: {fileID: 0}
  m_PrefabAsset: {fileID: 0}
  m_GameObject: {fileID: 0}
  m_Enabled: 1
  m_EditorHideFlags: 0
  m_Script: {fileID: 11500000, guid: d2a959b2c3861014da63f4375184e8ae, type: 3}
  m_Name: 3DoorRoomCreationData
  m_EditorClassIdentifier: 
  RoomPrefab: {fileID: 6338915601300944183, guid: 0a171a6f17dc9e24aa4df24515ff9eef,
    type: 3}
  RoomController: {fileID: 3231056256456696705, guid: 0a171a6f17dc9e24aa4df24515ff9eef,
    type: 3}
  NumberOfDoors: 3
